Analysis of False Belief Task (2)
…
## boundary (singular) fit: see help('isSingular')
## boundary (singular) fit: see help('isSingular')
## boundary (singular) fit: see help('isSingular')
## boundary (singular) fit: see help('isSingular')
## boundary (singular) fit: see help('isSingular')
## boundary (singular) fit: see help('isSingular')
## boundary (singular) fit: see help('isSingular')
## boundary (singular) fit: see help('isSingular')

results_by_model_path %>%
  arrange(LRT_stat)

## # A tibble: 37 × 5
##    model_path                      delta_AIC   LRT_stat p_value condition_coef
##    <chr>                               <dbl>      <dbl>   <dbl>          <dbl>
##  1 EleutherAI/pythia-160m              -2.00 0.00000583   0.998      -0.000154
##  2 EleutherAI/pythia-1b                -1.99 0.00640      0.936       0.00416 
##  3 EleutherAI/pythia-12b               -1.98 0.0177       0.894      -0.00803 
##  4 allenai/OLMo-2-0425-1B              -1.97 0.0309       0.860      -0.0126  
##  5 allenai/OLMo-2-0425-1B-DPO          -1.93 0.0662       0.797       0.0360  
##  6 EleutherAI/pythia-14m               -1.93 0.0681       0.794      -0.0155  
##  7 allenai/OLMo-2-0425-1B-Instruct     -1.81 0.195        0.659       0.0675  
##  8 EleutherAI/pythia-70m               -1.77 0.229        0.632       0.0166  
##  9 allenai/OLMo-2-0425-1B-SFT          -1.72 0.284        0.594       0.0517  
## 10 Qwen/Qwen2.5-0.5B                   -1.71 0.293        0.588       0.0420  
## # ℹ 27 more rows
…
glmer_model_comparisons

## # A tibble: 37 × 6
##    model_shorthand     delta_AIC LRT_stat  p_value log_odds_coef condition_coef
##    <chr>                   <dbl>    <dbl>    <dbl>         <dbl>          <dbl>
##  1 Olmo 2 13b              186.     188.  8.06e-43        0.208           -2.84
##  2 Olmo 2 13b Dpo          100.     102.  4.56e-24        0.131           -2.74
##  3 Olmo 2 13b Instruct     104.     106.  8.95e-25        0.106           -2.75
##  4 Olmo 2 13b Sft          117.     119.  1.01e-27        0.284           -2.72
##  5 Olmo 2 1b               269.     271.  7.21e-61        0.190           -2.95
##  6 Olmo 2 1b Dpo           269.     271.  7.06e-61       -0.0830          -2.96
##  7 Olmo 2 1b Instruct      269.     271.  6.30e-61       -0.0362          -2.96
##  8 Olmo 2 1b Sft           261.     263.  4.30e-59       -0.312           -2.95
##  9 Olmo 2 32b              113.     115.  8.51e-27        0.207           -2.71
## 10 Olmo 2 32b Dpo           71.9     73.9 8.36e-18        0.109           -2.52
## # ℹ 27 more rows
…
