…
``` r
results_by_model_path %>%
  arrange(LRT_stat)
```

```
## # A tibble: 41 × 6
##    model_path       delta_AIC LRT_stat p_value condition_coef knowledge_cue_coef
##    <chr>                <dbl>    <dbl>   <dbl>          <dbl>              <dbl>
##  1 meta-llama/Meta…     -2.00  7.77e-5   0.993      -0.000782            0.00235
##  2 EleutherAI/pyth…     -2.00  4.77e-4   0.983       0.00338            -0.240  
##  3 meta-llama/Meta…     -2.00  2.58e-3   0.959      -0.00507             0.0144 
##  4 Qwen/Qwen2.5-1.…     -1.99  6.02e-3   0.938       0.0329             -0.147  
##  5 Qwen/Qwen2.5-0.…     -1.99  8.76e-3   0.925       0.0348             -0.568  
##  6 allenai/OLMo-2-…     -1.99  1.05e-2   0.918      -0.0443              1.06   
##  7 google/gemma-2b      -1.98  1.54e-2   0.901      -0.0177             -0.103  
##  8 EleutherAI/pyth…     -1.98  2.07e-2   0.886      -0.0298              0.464  
##  9 allenai/OLMo-2-…     -1.98  2.18e-2   0.883       0.102               2.32   
## 10 google/gemma-2b…     -1.89  1.06e-1   0.745      -0.106               0.0311 
## # ℹ 31 more rows
```
…
``` r
df_summ %>%
  select(model_shorthand, mean_accuracy)
```

```
## Adding missing grouping variables: `model_path`, `model_family`, `num_params`,
## `num_training_tokens`
```

```
## # A tibble: 41 × 6
## # Groups:   model_path, model_shorthand, model_family, num_params,
## #   num_training_tokens [41]
##    model_path        model_family num_params num_training_tokens model_shorthand
##    <chr>             <chr>             <dbl>               <dbl> <chr>          
##  1 EleutherAI/pythi… Pythia          1.52e 9             3   e11 Pythia 1.4b    
##  2 EleutherAI/pythi… Pythia          1.20e10             3   e11 Pythia 12b     
##  3 EleutherAI/pythi… Pythia          3.92e 7             3   e11 Pythia 14m     
##  4 EleutherAI/pythi… Pythia          2.13e 8             3   e11 Pythia 160m    
##  5 EleutherAI/pythi… Pythia          1.08e 9             3   e11 Pythia 1b      
##  6 EleutherAI/pythi… Pythia          2.91e 9             3   e11 Pythia 2.8b    
##  7 EleutherAI/pythi… Pythia          5.06e 8             3   e11 Pythia 410m    
##  8 EleutherAI/pythi… Pythia          6.99e 9             3   e11 Pythia 6.9b    
##  9 EleutherAI/pythi… Pythia          9.56e 7             3   e11 Pythia 70m     
## 10 Qwen/Qwen2.5-0.5B Qwen 2.5        4.94e 8             1.80e13 Qwen 2.5 0.5b  
## # ℹ 31 more rows
## # ℹ 1 more variable: mean_accuracy <dbl>
```
…
  )
}

# Apply across model_shorthand groups
glmer_model_comparisons <- df_all_models_with_human %>%
  group_by(model_shorthand) %>%
  group_split() %>%
  map_dfr(fit_compare_glmer_by_model)

glmer_model_comparisons
```

```
## # A tibble: 41 × 7
##    model_shorthand  delta_AIC LRT_stat  p_value log_odds_coef knowledge_cue_coef
##    <chr>                <dbl>    <dbl>    <dbl>         <dbl>              <dbl>
##  1 Gemma 1 2b            190.     192. 1.14e-43      -0.0135              -0.968
##  2 Gemma 1 2b Inst…      191.     193. 9.00e-44       0.00616             -0.944
##  3 Llama 3 8b            192.     194. 3.34e-44       0.108               -0.970
##  4 Llama 3 8b Inst…      191.     193. 8.46e-44       0.0468              -0.958
##  5 Olmo 2 13b            138.     140. 2.82e-32      -0.00482             -0.980
##  6 Olmo 2 13b Dpo        133.     135. 2.67e-31       0.00328             -0.941
##  7 Olmo 2 13b Inst…      133.     135. 3.36e-31       0.00217             -0.947
##  8 Olmo 2 13b Sft        139.     141. 1.71e-32      -0.00578             -0.982
##  9 Olmo 2 1b             188.     190. 2.68e-43      -0.00367             -0.963
## 10 Olmo 2 1b Dpo         190.     192. 1.19e-43      -0.00200             -0.956
## # ℹ 31 more rows
## # ℹ 1 more variable: condition_coef <dbl>
```
…
```
## Warning in checkConv(attr(opt, "derivs"), opt$par, ctrl = control$checkConv, :
## Model failed to converge with max|grad| = 0.0227752 (tol = 0.002, component 1)
```

``` r
glmer_model_comparisons
```

```
## # A tibble: 41 × 7
##    model_shorthand   delta_AIC LRT_stat p_value log_odds_coef knowledge_cue_coef
##    <chr>                 <dbl>    <dbl>   <dbl>         <dbl>              <dbl>
##  1 Gemma 1 2b            14.1     16.1  6.03e-5      -0.0135              -0.968
##  2 Gemma 1 2b Instr…     13.6     15.6  7.79e-5       0.00616             -0.944
##  3 Llama 3 8b            14.5     16.5  4.95e-5       0.108               -0.970
##  4 Llama 3 8b Instr…     14.3     16.3  5.44e-5       0.0468              -0.958
##  5 Olmo 2 13b             7.55     9.55 1.99e-3      -0.00482             -0.980
##  6 Olmo 2 13b Dpo         8.11    10.1  1.48e-3       0.00328             -0.941
##  7 Olmo 2 13b Instr…      8.24    10.2  1.37e-3       0.00217             -0.947
##  8 Olmo 2 13b Sft         8.96    11.0  9.29e-4      -0.00578             -0.982
##  9 Olmo 2 1b             14.0     16.0  6.28e-5      -0.00367             -0.963
## 10 Olmo 2 1b Dpo         12.5     14.5  1.37e-4      -0.00200             -0.956
## # ℹ 31 more rows
## # ℹ 1 more variable: condition_coef <dbl>
```
…
